<?xml version="1.0" encoding="iso-8859-1"?>
<!-- Generator: Adobe Illustrator 16.0.0, SVG Export Plug-In . SVG Version: 6.00 Build 0)  -->
<!DOCTYPE svg PUBLIC "-//W3C//DTD SVG 1.1//EN" "http://www.w3.org/Graphics/SVG/1.1/DTD/svg11.dtd">
<svg version="1.1" id="Capa_1" xmlns="http://www.w3.org/2000/svg" xmlns:xlink="http://www.w3.org/1999/xlink" x="0px" y="0px"
	 width="28.335px" height="28.334px" viewBox="0 0 28.335 28.334" style="enable-background:new 0 0 28.335 28.334;"
	 xml:space="preserve">
<g>
	<g>
		<path style="fill:#1d2330;" d="M14.167,0C6.356,0,0,6.355,0,14.167c0,7.812,6.356,14.167,14.167,14.167c7.812,0,14.168-6.354,14.168-14.167
			C28.335,6.355,21.979,0,14.167,0z M11.443,5.073l0.662,0.188V4.39l0.258-0.243l0.276,0.536l0.526,0.635l-0.213,0.292l-0.848,0.195
			V5.289l-0.662,0.516L11.25,5.511L11.443,5.073z M1.239,13.852c0.066-2.742,0.989-5.269,2.513-7.336
			c0.051,0.007,0.087,0.02,0.087,0.02c0,0.195-0.266,0.242,0,0.732c0.34,0.634,0.048,0.927,0.048,0.927s-0.83,0.585-0.976,0.683
			C2.765,8.975,2.375,9.511,2.618,9.365c0.244-0.146,0.536-0.292,0.293,0.098c-0.244,0.391-0.683,1.024-0.78,1.269
			c-0.097,0.245-0.585,0.829-0.585,1.122S1.351,12.732,1.4,12.977C1.433,13.146,1.324,13.646,1.239,13.852z M6.277,22l-0.196,0.729
			l0.196,0.586c0,0-0.294,0.244-0.487,0.244c-0.18,0-0.241,0.113-0.438,0.062c-1.86-1.738-3.21-4.011-3.795-6.576
			c0.063,0.017,0.153,0.062,0.28,0.174c0.184,0.16,0.293,0.242,0.537,0.341c0.243,0.1,0.341,0.243,0.634,0.39
			c0.293,0.147,0.196,0.05,0.585,0.489c0.391,0.438,0.342,0.438,0.439,0.682c0.097,0.244,0.244,0.488,0.342,0.635
			s0.39,0.244,0.536,0.342s0.39,0.195,0.536,0.195c0.147,0,0.586,0.439,0.83,0.486c0.244,0.051,0.244,0.539,0.244,0.539L6.277,22z
			 M8.228,3.171C7.594,3.854,7.74,3.659,7.594,3.854s-0.098,0.243-0.44,0.488C6.813,4.584,6.667,4.877,6.667,4.877L6.13,5.073
			L5.692,4.877c0,0-0.392,0.147-0.343-0.049c0.014-0.051,0.034-0.105,0.057-0.162C6.6,3.564,7.997,2.688,9.539,2.093
			C9.387,2.289,9.203,2.488,9.203,2.488S8.862,2.487,8.228,3.171z M23.105,20.682c-0.051,0.193-0.146,0.535-0.195,0.73
			s-0.293,0.586-0.438,0.683c-0.146,0.099-0.392,0.392-0.537,0.44s-0.244-0.344-0.195-0.537c0.051-0.197,0.293-0.732,0.293-0.732
			s0.049-0.291,0.098-0.488c0.051-0.192,0.635-0.438,0.635-0.438l0.392-0.732c0,0,0.049,0.197,0.049,0.343
			C23.203,20.095,23.154,20.487,23.105,20.682z M23.251,16.096c-0.099,0.146-0.392,0.535-0.537,0.73s-0.34,0.488-0.633,0.732
			c-0.293,0.243-0.295,0.485-0.438,0.684c-0.146,0.195-0.343,0.633-0.343,0.633s0.099,0.977,0.146,1.172
			c0.051,0.195-0.34,0.73-0.34,0.73l-0.439,0.438l-0.588,0.781l0.047,0.729c0,0-0.443,0.342-0.688,0.537
			c-0.242,0.195-0.205,0.342-0.399,0.537c-0.192,0.193-0.711,0.535-0.906,0.585c-0.194,0.05-1.022,0.194-1.022,0.194v-0.438
			l-0.271-0.488c0,0-0.271-0.584-0.418-0.781c-0.146-0.193-0.146-0.488-0.389-0.73c-0.244-0.244-0.363-0.438-0.412-0.586
			c-0.05-0.146,0.036-0.584,0.036-0.584s0.188-0.537,0.285-0.731c0.099-0.195-0.002-0.488-0.102-0.685
			c-0.098-0.195-0.146-0.684-0.146-0.828c0-0.146-0.394-0.393-0.539-0.537c-0.146-0.147-0.098-0.342-0.098-0.537
			c0-0.194-0.146-0.635-0.099-0.975c0.049-0.342-0.438-0.1-0.73,0c-0.293,0.096-0.487-0.1-0.487-0.393
			c0-0.291-0.536-0.047-0.878,0.146c-0.343,0.194-0.732,0.194-1.124,0.34c-0.389,0.146-0.583-0.146-0.583-0.146
			s-0.343-0.293-0.585-0.438c-0.245-0.146-0.489-0.438-0.685-0.683c-0.194-0.245-0.683-0.978-0.73-1.268
			c-0.049-0.294,0-0.49,0-0.831c0-0.341,0-0.536,0.048-0.78c0.049-0.244,0.195-0.537,0.342-0.781
			c0.146-0.244,0.683-0.536,0.828-0.634c0.146-0.097,0.488-0.389,0.488-0.585c0-0.195,0.196-0.292,0.292-0.488
			c0.099-0.195,0.44-0.682,0.879-0.487c0,0,0.389-0.048,0.535-0.097c0.146-0.049,0.536-0.194,0.729-0.292
			c0.195-0.098,0.681-0.144,0.681-0.144s0.384,0.153,0.53,0.153s0.623-0.085,0.623-0.085s0.221,0.707,0.221,0.854
			s0.146,0.292,0.392,0.39c0.241,0.097,1.364,0.341,1.854-0.049c0.112-0.09,0.485,0.146,0.485,0.146s1.22,0.244,1.414,0.39
			c0.196,0.147,0.537,0.245,0.635,0.392c0.099,0.146,0.438,0.585,0.486,0.731c0.051,0.146,0.295,0.684,0.344,0.878
			c0.05,0.195,0.194,0.683,0.341,0.927c0.146,0.245,0.977,1.316,1.268,1.805l0.881-0.146C23.447,15.511,23.35,15.951,23.251,16.096z
			 M26.812,14.245c-0.049-0.196-0.342-0.879-0.342-0.879s-0.293-0.39-0.488-0.488c-0.193-0.098-0.34-0.342-0.683-0.536
			c-0.342-0.196-0.487-0.293-0.778-0.293c-0.295,0-0.586-0.391-0.929-0.586c-0.342-0.194-0.391-0.097-0.391-0.097
			s0.391,0.585,0.391,0.731s0.438,0.39,0.88,0.292c0,0,0.291,0.537,0.438,0.683s-0.049,0.293-0.342,0.488
			c-0.293,0.194-0.242,0.146-0.392,0.292c-0.146,0.146-0.633,0.392-0.78,0.488c-0.146,0.097-0.73,0.39-1.021,0.097
			c-0.145-0.141-0.1-0.438-0.195-0.634c-0.098-0.195-1.121-1.707-1.609-2.389c-0.086-0.12-0.293-0.49-0.438-0.585
			c-0.146-0.099,0.343-0.099,0.343-0.099s0-0.342-0.05-0.585c-0.049-0.244,0.05-0.585,0.05-0.585s-0.488,0.292-0.636,0.39
			c-0.146,0.098-0.293-0.194-0.485-0.439c-0.195-0.243-0.392-0.537-0.439-0.781c-0.049-0.243,0.244-0.341,0.244-0.341l0.438-0.243
			c0,0,0.537-0.097,0.881-0.049c0.34,0.049,0.877,0.098,0.877,0.098s0.146-0.342-0.051-0.488c-0.193-0.146-0.635-0.39-0.828-0.341
			c-0.195,0.048,0.096-0.244,0.34-0.439l-0.541-0.098c0,0-0.49,0.244-0.639,0.293c-0.146,0.048-0.398,0.146-0.596,0.39
			c-0.193,0.244,0.078,0.585-0.117,0.683c-0.193,0.098-0.326,0.146-0.473,0.194c-0.146,0.049-0.609,0-0.609,0
			c-0.504,0-0.182,0.46-0.051,0.623l-0.391-0.476l-0.289-0.684c0,0-0.416-0.292-0.609-0.389c-0.197-0.097-0.797-0.439-0.797-0.439
			l0.041,0.439l0.564,0.572l0.051,0.013l0.346,0.39l-0.598,0.049V8.102c-1-0.148-0.504-0.3-0.572-0.347
			c-0.145-0.097-0.51-0.342-0.51-0.342S14.437,7.51,14.291,7.56c-0.147,0.049-0.193,0.195-0.485,0.292
			c-0.294,0.098-0.43,0.244-0.527,0.39c-0.097,0.146-0.416,0.585-0.609,0.78c-0.196,0.196-0.562,0.146-0.708,0.146
			c-0.147,0-0.854-0.195-0.854-0.195V8.146c0,0,0.098-0.464,0.049-0.61l0.429-0.072l0.713-0.147l0.21-0.147l0.3-0.39
			c0,0-0.337-0.244-0.094-0.585C12.832,6.031,13.253,6,13.448,5.854c0.194-0.146,0.489-0.244,0.489-0.244s0.342-0.292,0.683-0.634
			c0,0,0.244-0.147,0.536-0.245c0,0,0.83,0.732,0.977,0.732s0.684-0.341,0.684-0.341s0.146-0.438,0.099-0.585
			c-0.049-0.146-0.293-0.634-0.293-0.634s-0.146,0.244-0.291,0.439c-0.146,0.195-0.246,0.439-0.246,0.439S15.4,4.733,15.354,4.587
			C15.305,4.44,15.208,4.2,15.158,4.055c-0.047-0.147-0.438-0.142-0.729-0.044c-0.294,0.098,0.047-0.526,0.047-0.526
			s0.294-0.368,0.488-0.368c0.193,0,0.636-0.25,0.828-0.298c0.194-0.049,0.782-0.424,1.024-0.424c0.244,0,0.537-0.046,0.685-0.046
			c0.146,0,0.729,0,0.729,0l1.023,0.069c0,0,0.879,0.4,0.584,0.596c0,0,0.344,0.25,0.49,0.396c0.137,0.138,0.49-0.108,0.693-0.221
			c3.649,2.292,6.09,6.352,6.09,10.971c0,0.248-0.021,0.495-0.035,0.739C26.982,14.667,26.846,14.373,26.812,14.245z"/>
		<polygon style="fill:#1d2330;" points="11.722,5.26 11.722,5.289 11.738,5.269 		"/>
	</g>
</g>
<g>
</g>
<g>
</g>
<g>
</g>
<g>
</g>
<g>
</g>
<g>
</g>
<g>
</g>
<g>
</g>
<g>
</g>
<g>
</g>
<g>
</g>
<g>
</g>
<g>
</g>
<g>
</g>
<g>
</g>
</svg>
