<?xml version="1.0" encoding="iso-8859-1"?>
<!-- Generator: Adobe Illustrator 18.1.1, SVG Export Plug-In . SVG Version: 6.00 Build 0)  -->
<svg version="1.1" id="Capa_1" xmlns="http://www.w3.org/2000/svg" xmlns:xlink="http://www.w3.org/1999/xlink" x="0px" y="0px"
	 viewBox="0 0 14 14" style="enable-background:new 0 0 14 14;" xml:space="preserve">
<g>
	<path style="fill:#ffffff;" d="M7,0.935c-3.866,0-7,2.463-7,5.5c0,1.438,0.703,2.749,1.854,3.729
		c-0.044,0.955-0.242,2.239-0.942,2.901c1.337,0,2.706-0.88,3.518-1.514c0.796,0.248,1.663,0.384,2.57,0.384c3.866,0,7-2.463,7-5.5
		S10.866,0.935,7,0.935z"/>
</g>
<g>
</g>
<g>
</g>
<g>
</g>
<g>
</g>
<g>
</g>
<g>
</g>
<g>
</g>
<g>
</g>
<g>
</g>
<g>
</g>
<g>
</g>
<g>
</g>
<g>
</g>
<g>
</g>
<g>
</g>
</svg>
